C51 COMPILER V9.60.0.0   PORTIO                                                            09/18/2021 18:51:33 PAGE 1   


C51 COMPILER V9.60.0.0, COMPILATION OF MODULE PORTIO
OBJECT MODULE PLACED IN .\Objects\portIO.obj
COMPILER INVOKED BY: C:\Keil_v5\C51\BIN\C51.EXE portIO.c ROM(COMPACT) OPTIMIZE(8,SIZE) BROWSE DEBUG OBJECTEXTEND PRINT(.
                    -\Listings\portIO.lst) TABS(2) OBJECT(.\Objects\portIO.obj)

line level    source

   1          /* 
   2           * Demonstration der Eingabe und Ausgabe einzelner Bytes und Bits
   3           * auf Hardware-Ports, fuer die Mikrocontroller-Familie 8051.
   4           *
   5           * Die erste Datei dieses Satzes von Dateien ist cGrundlagen.c.
   6           *
   7           * Jan Bredereke, 2020
   8           */
   9          
  10          /* Bei den Mikrocontrollern der 8051-Familie greift man auf alle
  11           * Peripherie zu, indem man bestimmte spezielle Speicherbereiche
  12           * liest und schreibt. Der Speicheradressraum der 8051-Familie ist
  13           * in ziemlich viele verschiedene Bereiche aufgeteilt, was wir an
  14           * dieser Stelle aber nicht weiter erklaeren. Jedenfalls liegen in
  15           * einem bestimmten Teilbereich des Speicheradressraums die
  16           * "Special-Function-Register".
  17           *
  18           * Die Mikrocontroller der 8051-Familie haben mehrere "Ports". Jeder
  19           * Port ist ein Buendel von acht einzelnen digitalen Leitungen.
  20           * Ueber jede dieser Leitungen kann ein Bit eingelesen oder
  21           * ausgegeben werden. Daher erlaubt ein Port, ein einzelnes Byte
  22           * einzulesen oder auszugeben. Es ist allerdings auch moeglich, die
  23           * Bits eines Ports getrennt zu verwenden, auch in verschiedene
  24           * Richtungen.
  25           *
  26           * Bei dem Mikrocontroller C515C in unserem Labor haben wir die
  27           * folgenden Ports zur freien Verfuegung, vergleiche auch das Foto
  28           * des Boards in Aulis:
  29           * - Port 5 ist auf acht Buchsen an der rechten Seite des Boards
  30           *   herausgefuehrt. Normalerweise steckt dort eine Platine mit acht
  31           *   LEDs. Bei Ausgabe einer 0 leuchtet die zugehoerige LED.
  32           * - Port 4 ist ebenfalls auf acht Buchsen links daneben
  33           *   herausgefuehrt. Allerdings werden die Bits 6 und 7 bereits
  34           *   fuer den CAN-Bus verwendet. Zumindest Bit 7 kann nicht anders
  35           *   verwendet werden.
  36           * - Port 1 ist auf der linken Seite herausgefuehrt. Mit einem
  37           *   entsprechend gekennzeichneten Jumper kann man waehlen, ob man
  38           *   die acht Bits fuer eine Eingabe oder fuer eine Ausgabe verwenden
  39           *   moechte. Bei einer Ausgabe werden die acht LEDs neben dem Jumper
  40           *   verwendet. Bei Ausgabe einer 1 leuchtet die zugehoerige LED.
  41           *   Fuer die Eingabe werden die acht Tipptaster dort verwendet.
  42           *   Neben jedem Taster ist eine weitere LED. Einmal Tippen schaltet
  43           *   sie ein (bedeutet 1), nocheinmal Tippen schaltet sie aus
  44           *   (bedeutet 0).
  45           * - Von Port 3 sind nur einige Bits herausgefuehrt, siehe das Foto
  46           *   in Aulis. Die anderen Bits haben nicht aenderbare
  47           *   Sonderfunktionen, z.B. fuer die serielle Schnittstelle.
  48           *
  49           * Das Umschalten zwischen Eingaberichtung und Ausgaberichtung
  50           * erfolgt bei Mikrocontrollern der 8051-Familie recht
  51           * ungewoehnlich, im Vergleich zu anderen Mikrocontrollern. Nach
  52           * einem Reset liegt jeder Anschlusspin erst einmal auf 1. Dies wird
  53           * durch einen Pull-Up-Widerstand erreicht. Daher darf man diesen
  54           * Anschlusspin von aussen einfach mit Masse verbinden. Wenn die
C51 COMPILER V9.60.0.0   PORTIO                                                            09/18/2021 18:51:33 PAGE 2   

  55           * Software den Wert von diesem Anschlusspin einliest, bekommt sie
  56           * den entsprechenden logischen Wert. Wenn die Software auf einem
  57           * solchen Anschlusspin eine 0 ausgibt, dann verbindet ein
  58           * Ausgangstransistor der Anschlusspin mit Masse. Dies kann eine
  59           * aeussere Schaltung als Eingabesignal verwenden. Gibt man wieder
  60           * eine 1 aus, ist alles wie vorher. Zu jedem Anschlusspin gibt es
  61           * ein Ausgangs-Flipflop, dass den zuletzt durch die Software dort
  62           * ausgegebenen Wert zwischenspeichert. Man darf keinesfalls einen
  63           * Anschlusspin von aussen direkt mit +5V verbinden und danach den
  64           * Mikrocontroller eine 0 ausgeben lassen. Dies zerstoert recht
  65           * zuverlaessig den Mikrocontroller durch einen Kurzschluss.
  66           *
  67           * Nun sollte klar, sein, warum die LEDs an Port 5 bei dem Wert 0
  68           * leuchten. Sie sind ueber einen Schutzwiderstand einerseits mit +5 V 
  69           * und andererseits mit je einem Anschlusspin verbunden, das auf 0
  70           * geschaltet werden kann. (Bei Port 1 sind zusaetzliche Gatter
  71           * zwischengeschaltet, die fuer eine Invertierung sorgen.)
  72           *
  73           * Um aus der Sprache C heraus auf Special-Function-Register und
  74           * damit u.a. auf Ports zugreifen zu koennen, muss man ihnen Namen
  75           * geben. Fuer den byteweisen Zugriff geschieht dies mit dem
  76           * Konstrukt "sfr", fuer den bitweisen Zugriff mit dem Konstrukt
  77           * "sbit". Beide Konstrukte sind Erweiterungen der Sprache C durch
  78           * die Firma Keil. Diese Benennungskonstrukte koennen nur ausserhalb
  79           * von Funktionen, also auf globaler Ebene, verwendet werden. Die
  80           * damit definierten Namen koennen anschliessend fast genauso wie
  81           * normale globale Variablen der Sprache C verwendet werden.
  82           */
  83          
  84          /* Benennen eines Special-Function-Registers: */
  85          sfr meinPort = 0x90; /* Hexadezimal 90 ist die Adresse von Port 1 */
  86          
  87          /* Benennen des einzelnen Bits 0 dieses Special-Function-Registers: */
  88          sbit meinLsbVonP1 = meinPort^0;
  89              /* Anmerkung: "^" ist hier *nicht* der bitweise Xor-Operator. */
  90          
  91          /* Damit man nicht die Adressen aller Special-Function-Register
  92           * kennen und immer wieder aufschreiben muss, gibt es eine
  93           * Include-Datei, die alle Definitionen fuer die Portnamen usw. des
  94           * Mikrocontrollers C515C enthaelt: */
  95          #include <REG515C.H>
  96              /* Die include-Operation kann den Dateinamen entweder in "" oder
  97               * in <> einschliessen. Bei "" wird die Datei zuerst im
  98               * aktuellen Verzeichnis und dann an einigen Standardplaetzen
  99               * gesucht. Bei <> geschieht das Gleiche, aber im aktuellen
 100               * Verzeichnis wird *nicht* gesucht. */
 101          
 102              /* Tipp zum Editor der Entwicklungsumgebung Keil uVision:
 103               * Mit einem Rechtsklick ins Textfenster bekommt man ein
 104               * Kontextmenue. Einer der Eintraege dort ist
 105               * "Insert #include <REG515C.H>". So muss man sich den Namen
 106               * dieser Datei nicht merken.
 107               */
 108          
 109          /* Einige Variablen: */
 110          unsigned char gelesenesByte;
 111          bit gelesenesBit;
 112          
 113          /* Eine Funktion: */
 114          void portIO() {
 115   1          /* Einlesen eines Bytes von Port 1: */
 116   1          gelesenesByte = P1;
C51 COMPILER V9.60.0.0   PORTIO                                                            09/18/2021 18:51:33 PAGE 3   

 117   1          
 118   1          /* Einlesen eines Bits vom niederwertigsten Bit von Port 1: */
 119   1          gelesenesBit = meinLsbVonP1;
 120   1          /* Nicht erlaubt: "gelesenesBit = P1.0;" oder "gelesenesBit = P1^0;" */
 121   1          
 122   1          /* Ausgeben eines Bytes auf Port 1: */
 123   1          P1 = gelesenesByte;
 124   1      
 125   1          /* Ausgeben eines Bits auf das niederwertigste Bit von Port 1: */
 126   1          meinLsbVonP1 = 0;
 127   1      
 128   1          /* Von der Idee her falsch waere: */
 129   1          meinLsbVonP1 = '0'; /* Wirft keinen Fehler und setzt sogar auf 0.*/
 130   1              /* Diese Konstante ist ein Buchstabe. Der Dezimalwert davon ist
 131   1               * 48. Das unterste Bit davon ist 0. */
 132   1      
 133   1          return;
 134   1      }


MODULE INFORMATION:   STATIC OVERLAYABLE
   CODE SIZE        =     15    ----
   CONSTANT SIZE    =   ----    ----
   XDATA SIZE       =   ----    ----
   PDATA SIZE       =   ----    ----
   DATA SIZE        =      1    ----
   IDATA SIZE       =   ----    ----
   BIT SIZE         =      1    ----
END OF MODULE INFORMATION.


C51 COMPILATION COMPLETE.  0 WARNING(S),  0 ERROR(S)
